  0
SECTION
  2
HEADER
  9
$ACADVER
  1
AC1009
  9
$INSBASE
 10
0.0
 20
0.0
 30
0.0
  9
$EXTMIN
 10
0.0
 20
0.0
 30
0.0
  9
$EXTMAX
 10
0.0
 20
0.0
 30
0.0
  0
ENDSEC
  0
SECTION
  2
TABLES
  0
TABLE
  2
VPORT
 70
0
  0
ENDTAB
  0
TABLE
  2
LTYPE
 70
1
  0
LTYPE
  2
CONTINUOUS
 70
0
  3
Solid line
 72
65
 73
0
 40
0.0
  0
ENDTAB
  0
TABLE
  2
LAYER
 70
1
  0
LAYER
  2
0
 70
64
 62
7
  6
continuous
  0
ENDTAB
  0
TABLE
  2
STYLE
 70
1
  0
STYLE
  2
STANDARD
 70
0
 40
0
 41
1.0
 50
0.0
 71
0
 42
1
 3
ARIAL.TTF
 4

  0
ENDTAB
  0
TABLE
  2
VIEW
 70
0
  0
ENDTAB
  0
ENDSEC
  0
SECTION
  2
BLOCKS
  0
BLOCK
  8
DXF-export
  2
SHAPE2DVIEW004
 70
0
 10
0.0
 20
0.0
 30
0.0
  3
SHAPE2DVIEW004
  0
LINE
  8
DXF-export
 62
0
 10
3.4
 20
-95.4
 30
0.0
 11
28.4
 21
-249.4
 31
0.0
  0
LINE
  8
DXF-export
 62
0
 10
28.4
 20
-249.4
 30
0.0
 11
18.4
 21
-249.4
 31
0.0
  0
LINE
  8
DXF-export
 62
0
 10
18.4
 20
-249.4
 30
0.0
 11
18.4
 21
-252.4
 31
0.0
  0
LINE
  8
DXF-export
 62
0
 10
18.4
 20
-252.4
 30
0.0
 11
13.4
 21
-252.4
 31
0.0
  0
LINE
  8
DXF-export
 62
0
 10
13.4
 20
-252.4
 30
0.0
 11
13.4
 21
-249.4
 31
0.0
  0
LINE
  8
DXF-export
 62
0
 10
13.4
 20
-249.4
 30
0.0
 11
6.4
 21
-249.4
 31
0.0
  0
LINE
  8
DXF-export
 62
0
 10
6.4
 20
-249.4
 30
0.0
 11
3.4
 21
-245.4
 31
0.0
  0
LINE
  8
DXF-export
 62
0
 10
3.4
 20
-245.4
 30
0.0
 11
3.4
 21
-95.4
 31
0.0
  0
ENDBLK
  0
ENDSEC
  0
SECTION
  2
ENTITIES
  0
INSERT
  2
SHAPE2DVIEW004
  8
DXF-export
 62
0
 10
0.0
 20
0.0
 30
0.0
  0
ENDSEC
  0
EOF
